<svg width="100" height="60">
    <rect x="5" y="5" width="90" height="50" rx="10" opacity=".8" fill="none"
          stroke="#666" stroke-width="4" stroke-dasharray="10" stroke-linecap="round"/>
</svg>
