<svg xmlns="http://www.w3.org/2000/svg" version="1.1" viewBox="0 0 350 140">
    <g fill="none" stroke="#aaa" stroke-width="3">
        <path d="M 30 77 H 50" stroke-width="8" />
        <path d="M 130 77 C 160 77, 160 40, 190 40" />
        <path d="M 130 77 H 190" />
        <path d="M 130 77 C 160 77, 160 115, 190 115" />
    </g>

    <g fill="#555">
        <g opacity=".9">
            <circle cx="295" cy="40" r="2.5" />
            <circle cx="295" cy="77" r="2.5" />
            <circle cx="295" cy="115" r="2.5" />
        </g>
        <g opacity=".6">
            <circle cx="310" cy="40" r="2.5" />
            <circle cx="310" cy="77" r="2.5" />
            <circle cx="310" cy="115" r="2.5" />
        </g>
        <g opacity=".3">
            <circle cx="325" cy="40" r="2.5" />
            <circle cx="325" cy="77" r="2.5" />
            <circle cx="325" cy="115" r="2.5" />
        </g>
        <g opacity=".15">
            <circle cx="340" cy="40" r="2.5" />
            <circle cx="340" cy="77" r="2.5" />
            <circle cx="340" cy="115" r="2.5" />
        </g>
    </g>

    <rect x="0" y="27" width="30" height="100" rx="10" fill="#00897b" />
    <text transform="translate(20 77)rotate(-90)" fill="white" text-anchor="middle">TUN</text>

    <rect x="50" y="57" width="80" height="40" rx="10" fill="#666" />
    <text x="90" y="77" fill="white" text-anchor="middle">I/O</text>
    <text x="90" y="89" fill="white" text-anchor="middle" class="sm">thread</text>

    <rect x="180" y="0" width="120" height="140" rx="10" fill="black" opacity=".07" />
    <text x="190" y="18" class="sm">Subsystems</text>

    <rect x="190" y="25" width="100" height="30" rx="5" fill="#1e88e5" />
    <text x="240" y="45" fill="white" text-anchor="middle">TCP</text>

    <rect x="190" y="62.5" width="100" height="30" rx="5" fill="#e53935" />
    <text x="240" y="82.5" fill="white" text-anchor="middle">UDP</text>

    <rect x="190" y="100" width="100" height="30" rx="5" fill="#4caf50" />
    <text x="240" y="120" fill="white" text-anchor="middle">ICMP</text>
</svg>
